{
    "welcomeFile": "comistnitnui5tmp/index.html",
    "authenticationMethod": "none",
    "routes": [
        {
            "source": "^/comistnitnui5tmp/(.*)$",
            "target": "$1",
            "localDir": "../itn-ui5-tmp/webapp"
        }
    ]
}